<?xml version="1.0" encoding="UTF-8"?>
<!-- Created with Inkscape (http://www.inkscape.org/) -->
<svg width="96" height="32" version="1.1" viewBox="0 0 25.4 8.4667" xmlns="http://www.w3.org/2000/svg" xmlns:xlink="http://www.w3.org/1999/xlink">
 <defs>
  <linearGradient id="linearGradient30" x1="52.813" x2="50.029" y1="30.113" y2="31.848" gradientTransform="translate(.36178 .038329)" gradientUnits="userSpaceOnUse">
   <stop stop-color="#0d00e4" offset="0"/>
   <stop stop-color="#0d00e4" stop-opacity="0" offset="1"/>
  </linearGradient>
 </defs>
 <g transform="translate(-37.883 -22.557)">
  <path d="m54.258 28.304s1.2887-0.47651 1.9653-0.58993c0.67666-0.11342 6.9512-1.1813 6.9512-1.1813s-5.5841 1.7188-6.5948 1.9073-2.3217-0.13604-2.3217-0.13604z" fill="#00cf6b"/>
  <path transform="rotate(-6.0476)" d="m53.174 30.152a3.0791 3.0791 0 0 1 3.5668 0.18462 3.0791 3.0791 0 0 1 0.99278 3.4308 3.0791 3.0791 0 0 1-2.917 2.0609 3.0791 3.0791 0 0 1-2.902-2.082" fill="none" stroke="url(#linearGradient30)" stroke-linecap="round" stroke-width=".66146"/>
  <path d="m54.258 28.304s0.84534-1.0132 1.7455-1.368 5.9854-2.2678 5.9854-2.2678-4.0862 2.5478-4.701 3.3847c-0.61485 0.8369-3.0298 0.25118-3.0298 0.25118z" fill="#ff353c"/>
  <text x="40.20462" y="28.303911" fill="#ffffff" font-family="'Noto Sans CJK JP'" font-size="4.2333px" stroke-width="3.175" xml:space="preserve"><tspan x="40.20462" y="28.303911" fill="#ffffff" font-family="'Noto Sans'" font-size="4.2333px" font-weight="bold" stroke-width="3.175">UGOKU</tspan></text>
 </g>
</svg>
