(footprint "LGA-14L_STM" (version 20211014) (generator pcbnew)
  (layer "F.Cu")
  (tags "LSM6DSOXTR ")
  (attr smd)
  (fp_text reference "REF**" (at 0 0 unlocked) (layer F.SilkS)
    (effects (font (size 1 1) (thickness 0.15)))
  )
  (fp_text value LGA-14L_STM (at 0 0 unlocked) (layer F.Fab)
    (effects (font (size 1 1) (thickness 0.15)))
  )
  (fp_text user "${REFERENCE}" (at 0 0 unlocked) (layer F.Fab)
    (effects (font (size 1 1) (thickness 0.15)))
  )
  (fp_text user "*" (at -2.032 -1) (layer F.SilkS)
    (effects (font (size 1 1) (thickness 0.15)))
  )
  (fp_text user "*" (at -1.0236 -1) (layer F.Fab)
    (effects (font (size 1 1) (thickness 0.15)))
  )
  (fp_poly (pts
      (xy 1.905 -0.4405)
      (xy 1.905 -0.059499)
      (xy 1.651 -0.059499)
      (xy 1.651 -0.4405)
    ) (layer "F.SilkS") (width 0) (fill solid))
  (fp_line (start -1.651 1.397) (end -1.651 0.9512) (layer "F.CrtYd") (width 0.1524))
  (fp_line (start -1.651 0.9512) (end -1.651 0.9512) (layer "F.CrtYd") (width 0.1524))
  (fp_line (start -1.651 0.9512) (end -1.651 -0.9512) (layer "F.CrtYd") (width 0.1524))
  (fp_line (start -1.651 -0.9512) (end -1.651 -0.9512) (layer "F.CrtYd") (width 0.1524))
  (fp_line (start -1.651 -0.9512) (end -1.651 -1.397) (layer "F.CrtYd") (width 0.1524))
  (fp_line (start -1.651 -1.397) (end -0.7012 -1.397) (layer "F.CrtYd") (width 0.1524))
  (fp_line (start -0.7012 -1.397) (end -0.7012 -1.397) (layer "F.CrtYd") (width 0.1524))
  (fp_line (start -0.7012 -1.397) (end 0.7012 -1.397) (layer "F.CrtYd") (width 0.1524))
  (fp_line (start 0.7012 -1.397) (end 0.7012 -1.397) (layer "F.CrtYd") (width 0.1524))
  (fp_line (start 0.7012 -1.397) (end 1.651 -1.397) (layer "F.CrtYd") (width 0.1524))
  (fp_line (start 1.651 -1.397) (end 1.651 -0.9512) (layer "F.CrtYd") (width 0.1524))
  (fp_line (start 1.651 -0.9512) (end 1.651 -0.9512) (layer "F.CrtYd") (width 0.1524))
  (fp_line (start 1.651 -0.9512) (end 1.651 0.9512) (layer "F.CrtYd") (width 0.1524))
  (fp_line (start 1.651 0.9512) (end 1.651 0.9512) (layer "F.CrtYd") (width 0.1524))
  (fp_line (start 1.651 0.9512) (end 1.651 1.397) (layer "F.CrtYd") (width 0.1524))
  (fp_line (start 1.651 1.397) (end 0.7012 1.397) (layer "F.CrtYd") (width 0.1524))
  (fp_line (start 0.7012 1.397) (end 0.7012 1.397) (layer "F.CrtYd") (width 0.1524))
  (fp_line (start 0.7012 1.397) (end -0.7012 1.397) (layer "F.CrtYd") (width 0.1524))
  (fp_line (start -0.7012 1.397) (end -0.7012 1.397) (layer "F.CrtYd") (width 0.1524))
  (fp_line (start -0.7012 1.397) (end -1.651 1.397) (layer "F.CrtYd") (width 0.1524))
  (fp_text user "*" (at -2.032 -1 unlocked) (layer "F.SilkS")
    (effects (font (size 1 1) (thickness 0.15)))
  )
  (fp_text user "*" (at -1.0236 -1 unlocked) (layer "F.Fab")
    (effects (font (size 1 1) (thickness 0.15)))
  )
  (fp_line (start -1.5494 -0.0254) (end -0.2794 -1.2954) (layer "F.Fab") (width 0.0254))
  (fp_line (start 0.375 -1.2954) (end 0.625 -1.2954) (layer "F.Fab") (width 0.0254))
  (fp_line (start 0.625 -1.2954) (end 0.625 -1.1938) (layer "F.Fab") (width 0.0254))
  (fp_line (start 0.625 -1.1938) (end 0.375 -1.1938) (layer "F.Fab") (width 0.0254))
  (fp_line (start 0.375 -1.1938) (end 0.375 -1.2954) (layer "F.Fab") (width 0.0254))
  (fp_line (start -0.125 -1.2954) (end 0.125 -1.2954) (layer "F.Fab") (width 0.0254))
  (fp_line (start 0.125 -1.2954) (end 0.125 -1.1938) (layer "F.Fab") (width 0.0254))
  (fp_line (start 0.125 -1.1938) (end -0.125 -1.1938) (layer "F.Fab") (width 0.0254))
  (fp_line (start -0.125 -1.1938) (end -0.125 -1.2954) (layer "F.Fab") (width 0.0254))
  (fp_line (start -0.625 -1.2954) (end -0.375 -1.2954) (layer "F.Fab") (width 0.0254))
  (fp_line (start -0.375 -1.2954) (end -0.375 -1.1938) (layer "F.Fab") (width 0.0254))
  (fp_line (start -0.375 -1.1938) (end -0.625 -1.1938) (layer "F.Fab") (width 0.0254))
  (fp_line (start -0.625 -1.1938) (end -0.625 -1.2954) (layer "F.Fab") (width 0.0254))
  (fp_line (start -1.5494 -0.625) (end -1.5494 -0.875) (layer "F.Fab") (width 0.0254))
  (fp_line (start -1.5494 -0.875) (end -1.4478 -0.875) (layer "F.Fab") (width 0.0254))
  (fp_line (start -1.4478 -0.875) (end -1.4478 -0.625) (layer "F.Fab") (width 0.0254))
  (fp_line (start -1.4478 -0.625) (end -1.5494 -0.625) (layer "F.Fab") (width 0.0254))
  (fp_line (start -1.5494 -0.125) (end -1.5494 -0.375) (layer "F.Fab") (width 0.0254))
  (fp_line (start -1.5494 -0.375) (end -1.4478 -0.375) (layer "F.Fab") (width 0.0254))
  (fp_line (start -1.4478 -0.375) (end -1.4478 -0.125) (layer "F.Fab") (width 0.0254))
  (fp_line (start -1.4478 -0.125) (end -1.5494 -0.125) (layer "F.Fab") (width 0.0254))
  (fp_line (start -1.5494 0.375) (end -1.5494 0.125) (layer "F.Fab") (width 0.0254))
  (fp_line (start -1.5494 0.125) (end -1.4478 0.125) (layer "F.Fab") (width 0.0254))
  (fp_line (start -1.4478 0.125) (end -1.4478 0.375) (layer "F.Fab") (width 0.0254))
  (fp_line (start -1.4478 0.375) (end -1.5494 0.375) (layer "F.Fab") (width 0.0254))
  (fp_line (start -1.5494 0.875) (end -1.5494 0.625) (layer "F.Fab") (width 0.0254))
  (fp_line (start -1.5494 0.625) (end -1.4478 0.625) (layer "F.Fab") (width 0.0254))
  (fp_line (start -1.4478 0.625) (end -1.4478 0.875) (layer "F.Fab") (width 0.0254))
  (fp_line (start -1.4478 0.875) (end -1.5494 0.875) (layer "F.Fab") (width 0.0254))
  (fp_line (start -0.375 1.2954) (end -0.625 1.2954) (layer "F.Fab") (width 0.0254))
  (fp_line (start -0.625 1.2954) (end -0.625 1.1938) (layer "F.Fab") (width 0.0254))
  (fp_line (start -0.625 1.1938) (end -0.375 1.1938) (layer "F.Fab") (width 0.0254))
  (fp_line (start -0.375 1.1938) (end -0.375 1.2954) (layer "F.Fab") (width 0.0254))
  (fp_line (start 0.125 1.2954) (end -0.125 1.2954) (layer "F.Fab") (width 0.0254))
  (fp_line (start -0.125 1.2954) (end -0.125 1.1938) (layer "F.Fab") (width 0.0254))
  (fp_line (start -0.125 1.1938) (end 0.125 1.1938) (layer "F.Fab") (width 0.0254))
  (fp_line (start 0.125 1.1938) (end 0.125 1.2954) (layer "F.Fab") (width 0.0254))
  (fp_line (start 0.625 1.2954) (end 0.375 1.2954) (layer "F.Fab") (width 0.0254))
  (fp_line (start 0.375 1.2954) (end 0.375 1.1938) (layer "F.Fab") (width 0.0254))
  (fp_line (start 0.375 1.1938) (end 0.625 1.1938) (layer "F.Fab") (width 0.0254))
  (fp_line (start 0.625 1.1938) (end 0.625 1.2954) (layer "F.Fab") (width 0.0254))
  (fp_line (start 1.5494 0.625) (end 1.5494 0.875) (layer "F.Fab") (width 0.0254))
  (fp_line (start 1.5494 0.875) (end 1.4478 0.875) (layer "F.Fab") (width 0.0254))
  (fp_line (start 1.4478 0.875) (end 1.4478 0.625) (layer "F.Fab") (width 0.0254))
  (fp_line (start 1.4478 0.625) (end 1.5494 0.625) (layer "F.Fab") (width 0.0254))
  (fp_line (start 1.5494 0.125) (end 1.5494 0.375) (layer "F.Fab") (width 0.0254))
  (fp_line (start 1.5494 0.375) (end 1.4478 0.375) (layer "F.Fab") (width 0.0254))
  (fp_line (start 1.4478 0.375) (end 1.4478 0.125) (layer "F.Fab") (width 0.0254))
  (fp_line (start 1.4478 0.125) (end 1.5494 0.125) (layer "F.Fab") (width 0.0254))
  (fp_line (start 1.5494 -0.375) (end 1.5494 -0.125) (layer "F.Fab") (width 0.0254))
  (fp_line (start 1.5494 -0.125) (end 1.4478 -0.125) (layer "F.Fab") (width 0.0254))
  (fp_line (start 1.4478 -0.125) (end 1.4478 -0.375) (layer "F.Fab") (width 0.0254))
  (fp_line (start 1.4478 -0.375) (end 1.5494 -0.375) (layer "F.Fab") (width 0.0254))
  (fp_line (start 1.5494 -0.875) (end 1.5494 -0.625) (layer "F.Fab") (width 0.0254))
  (fp_line (start 1.5494 -0.625) (end 1.4478 -0.625) (layer "F.Fab") (width 0.0254))
  (fp_line (start 1.4478 -0.625) (end 1.4478 -0.875) (layer "F.Fab") (width 0.0254))
  (fp_line (start 1.4478 -0.875) (end 1.5494 -0.875) (layer "F.Fab") (width 0.0254))
  (fp_line (start -1.6764 1.4224) (end -0.957013 1.4224) (layer "F.SilkS") (width 0.1524))
  (fp_line (start 0.957013 1.4224) (end 1.6764 1.4224) (layer "F.SilkS") (width 0.1524))
  (fp_line (start 1.6764 -1.4224) (end 0.957013 -1.4224) (layer "F.SilkS") (width 0.1524))
  (fp_line (start -1.5494 1.2954) (end 1.5494 1.2954) (layer "F.Fab") (width 0.0254))
  (fp_line (start 1.5494 1.2954) (end 1.5494 1.2954) (layer "F.Fab") (width 0.0254))
  (fp_line (start 1.5494 1.2954) (end 1.5494 -1.2954) (layer "F.Fab") (width 0.0254))
  (fp_line (start 1.5494 -1.2954) (end 1.5494 -1.2954) (layer "F.Fab") (width 0.0254))
  (fp_line (start 1.5494 -1.2954) (end -1.5494 -1.2954) (layer "F.Fab") (width 0.0254))
  (fp_line (start -1.5494 -1.2954) (end -1.5494 -1.2954) (layer "F.Fab") (width 0.0254))
  (fp_line (start -1.5494 -1.2954) (end -1.5494 1.2954) (layer "F.Fab") (width 0.0254))
  (fp_line (start -1.5494 1.2954) (end -1.5494 1.2954) (layer "F.Fab") (width 0.0254))
  (fp_line (start -0.957013 -1.4224) (end -1.6764 -1.4224) (layer "F.SilkS") (width 0.1524))
  (pad "1" smd rect (at -1.2103 -0.750001 90) (size 0.351536 0.57658) (layers "F.Cu" "F.Paste" "F.Mask"))
  (pad "2" smd rect (at -1.2103 -0.25 90) (size 0.351536 0.57658) (layers "F.Cu" "F.Paste" "F.Mask"))
  (pad "3" smd rect (at -1.2103 0.25 90) (size 0.351536 0.57658) (layers "F.Cu" "F.Paste" "F.Mask"))
  (pad "4" smd rect (at -1.2103 0.750001 90) (size 0.351536 0.57658) (layers "F.Cu" "F.Paste" "F.Mask"))
  (pad "5" smd rect (at -0.499999 0.9563) (size 0.351536 0.57658) (layers "F.Cu" "F.Paste" "F.Mask"))
  (pad "6" smd rect (at 0 0.9563) (size 0.351536 0.57658) (layers "F.Cu" "F.Paste" "F.Mask"))
  (pad "7" smd rect (at 0.499999 0.9563) (size 0.351536 0.57658) (layers "F.Cu" "F.Paste" "F.Mask"))
  (pad "8" smd rect (at 1.2103 0.750001 90) (size 0.351536 0.57658) (layers "F.Cu" "F.Paste" "F.Mask"))
  (pad "9" smd rect (at 1.2103 0.25 90) (size 0.351536 0.57658) (layers "F.Cu" "F.Paste" "F.Mask"))
  (pad "10" smd rect (at 1.2103 -0.25 90) (size 0.351536 0.57658) (layers "F.Cu" "F.Paste" "F.Mask"))
  (pad "11" smd rect (at 1.2103 -0.750001 90) (size 0.351536 0.57658) (layers "F.Cu" "F.Paste" "F.Mask"))
  (pad "12" smd rect (at 0.499999 -0.9563) (size 0.351536 0.57658) (layers "F.Cu" "F.Paste" "F.Mask"))
  (pad "13" smd rect (at 0 -0.9563) (size 0.351536 0.57658) (layers "F.Cu" "F.Paste" "F.Mask"))
  (pad "14" smd rect (at -0.499999 -0.9563) (size 0.351536 0.57658) (layers "F.Cu" "F.Paste" "F.Mask"))
)
